{
    "vendor" : "std",
    "name" : "animals-barn",
    "version" : "1.0.0",
    "description" : "demo",
    "depends-on" : ["std:animals-core:1.0.0"],
    "export" : {
        "Cow" : "animals.barn.Cow", 
        "Sheep" : "animals.barn.Sheep"
    },
	"source-path" : "src"
}
